%YAML 1.1
%TAG !u! tag:unity3d.com,2011:
--- !u!74 &7400000
AnimationClip:
  m_ObjectHideFlags: 0
  m_PrefabParentObject: {fileID: 0}
  m_PrefabInternal: {fileID: 0}
  m_Name: Run
  serializedVersion: 4
  m_AnimationType: 2
  m_Compressed: 0
  m_UseHighQualityCurve: 1
  m_RotationCurves:
  - curve:
      serializedVersion: 2
      m_Curve:
      - time: 0
        value: {x: 0, y: 0, z: .496973962, w: .867765486}
        inSlope: {x: 0, y: 0, z: -3.96868014, w: 1.81560659}
        outSlope: {x: 0, y: 0, z: -3.96868014, w: 1.81560659}
        tangentMode: 15
      - time: .0416666679
        value: {x: 0, y: 0, z: .331612289, w: .943415761}
        inSlope: {x: 0, y: 0, z: -4.10026598, w: 1.44125032}
        outSlope: {x: 0, y: 0, z: -4.10026598, w: 1.44125032}
        tangentMode: -1
      - time: .0833333358
        value: {x: 0, y: 0, z: .15528512, w: .98786968}
        inSlope: {x: 0, y: 0, z: -3.97934771, w: .679010868}
        outSlope: {x: 0, y: 0, z: -3.97934771, w: .679010868}
        tangentMode: 825307444
      - time: .125
        value: {x: 0, y: 0, z: 0, w: 1}
        inSlope: {x: 0, y: 0, z: -3.50699329, w: .0324755013}
        outSlope: {x: 0, y: 0, z: -3.50699329, w: .0324755013}
        tangentMode: 0
      - time: .166666672
        value: {x: 0, y: 0, z: -.136964321, w: .990575969}
        inSlope: {x: 0, y: 0, z: -2.95271134, w: -.36894244}
        outSlope: {x: 0, y: 0, z: -2.95271134, w: -.36894244}
        tangentMode: 0
      - time: .208333343
        value: {x: 0, y: 0, z: -.246059313, w: .969254792}
        inSlope: {x: 0, y: 0, z: -1.72442818, w: -.369247913}
        outSlope: {x: 0, y: 0, z: -1.72442818, w: -.369247913}
        tangentMode: 501284900
      - time: .25
        value: {x: 0, y: 0, z: -.280666679, w: .95980531}
        inSlope: {x: 0, y: 0, z: .519643784, w: .119694501}
        outSlope: {x: 0, y: 0, z: .519643784, w: .119694501}
        tangentMode: 43
      - time: .291666657
        value: {x: 0, y: 0, z: -.202755675, w: .979229331}
        inSlope: {x: 0, y: 0, z: 2.78606391, w: .468217969}
        outSlope: {x: 0, y: 0, z: 2.78606391, w: .468217969}
        tangentMode: 0
      - time: .333333313
        value: {x: 0, y: 0, z: -.0484947376, w: .998823464}
        inSlope: {x: 0, y: 0, z: 3.73947024, w: .177924201}
        outSlope: {x: 0, y: 0, z: 3.73947024, w: .177924201}
        tangentMode: 0
      - time: .37499997
        value: {x: 0, y: 0, z: .108866774, w: .994056344}
        inSlope: {x: 0, y: 0, z: 3.49026728, w: -.34364754}
        outSlope: {x: 0, y: 0, z: 3.49026728, w: -.34364754}
        tangentMode: 1095761920
      - time: .416666627
        value: {x: 0, y: 0, z: .242360786, w: .970186174}
        inSlope: {x: 0, y: 0, z: 3.17196989, w: -.795653522}
        outSlope: {x: 0, y: 0, z: 3.17196989, w: -.795653522}
        tangentMode: 501284900
      - time: .458333284
        value: {x: 0, y: 0, z: .373197526, w: .927751899}
        inSlope: {x: 0, y: 0, z: 3.05535674, w: -1.22904754}
        outSlope: {x: 0, y: 0, z: 3.05535674, w: -1.22904754}
        tangentMode: 501284865
      - time: .5
        value: {x: 0, y: 0, z: .496973962, w: .867765486}
        inSlope: {x: 0, y: 0, z: 2.97063088, w: -1.43967223}
        outSlope: {x: 0, y: 0, z: 2.97063088, w: -1.43967223}
        tangentMode: 417370
      m_PreInfinity: 2
      m_PostInfinity: 2
    path: sprite/upper_right_leg
  - curve:
      serializedVersion: 2
      m_Curve:
      - time: 0
        value: {x: .101924449, y: .994792163, z: -4.45525927e-09, w: -4.34837482e-08}
        inSlope: {x: -1.44867921, y: .104249954, z: 6.33237818e-08, w: -4.55690952e-09}
        outSlope: {x: -1.44867921, y: .104249954, z: 6.33237818e-08, w: -4.55690952e-09}
        tangentMode: 691
      - time: .0416666679
        value: {x: .0415628143, y: .999135911, z: -1.81676829e-09, w: -4.36736194e-08}
        inSlope: {x: -1.45050585, y: .060338974, z: 9.05133106e-08, w: -1.43289208e-06}
        outSlope: {x: -1.45050585, y: .060338974, z: 9.05133106e-08, w: -1.43289208e-06}
        tangentMode: 1734954085
      - time: .0833333358
        value: {x: -.0189510416, y: .999820411, z: 3.08751669e-09, w: -1.62891425e-07}
        inSlope: {x: -1.49310446, y: -.0308990516, z: 1.83801546e-07, w: -1.42424119e-06}
        outSlope: {x: -1.49310446, y: -.0308990516, z: 1.83801546e-07, w: -1.42424119e-06}
        tangentMode: 354035220
      - time: .125
        value: {x: -.0828625634, y: .996560991, z: 1.3500026e-08, w: -1.62360394e-07}
        inSlope: {x: -1.82477522, y: -.174625382, z: 2.97293639e-07, w: 2.84500725e-08}
        outSlope: {x: -1.82477522, y: -.174625382, z: 2.97293639e-07, w: 2.84500725e-08}
        tangentMode: 506952044
      - time: .166666672
        value: {x: -.17101565, y: .985268295, z: 2.78619865e-08, w: -1.60520585e-07}
        inSlope: {x: -2.13977695, y: -.375241697, z: 3.48613924e-07, w: 6.11345783e-08}
        outSlope: {x: -2.13977695, y: -.375241697, z: 3.48613924e-07, w: 6.11345783e-08}
        tangentMode: 0
      - time: .208333343
        value: {x: -.261177331, y: .965290844, z: 4.25511892e-08, w: -1.57265845e-07}
        inSlope: {x: -1.48630357, y: -.356786728, z: 2.42149611e-07, w: 5.81279664e-08}
        outSlope: {x: -1.48630357, y: -.356786728, z: 2.42149611e-07, w: 5.81279664e-08}
        tangentMode: 0
      - time: .25
        value: {x: -.294874281, y: .955536067, z: 4.80411195e-08, w: -1.55676588e-07}
        inSlope: {x: .393209428, y: .0992903858, z: -6.40619646e-08, w: -1.61765019e-08}
        outSlope: {x: .393209428, y: .0992903858, z: -6.40619646e-08, w: -1.61765019e-08}
        tangentMode: 0
      - time: .291666657
        value: {x: -.228409886, y: .973565042, z: 3.72126934e-08, w: -1.58613886e-07}
        inSlope: {x: 2.28957391, y: .468398929, z: -3.73018963e-07, w: -7.6311963e-08}
        outSlope: {x: 2.28957391, y: .468398929, z: -3.73018963e-07, w: -7.6311963e-08}
        tangentMode: 507061756
      - time: .333333313
        value: {x: -.104076497, y: .994569302, z: 1.69562142e-08, w: -1.62035917e-07}
        inSlope: {x: 2.7409184, y: .317219555, z: -4.46552292e-07, w: -5.16815959e-08}
        outSlope: {x: 2.7409184, y: .317219555, z: -4.46552292e-07, w: -5.16815959e-08}
        tangentMode: 0
      - time: .37499997
        value: {x: -7.28208249e-08, y: 1, z: 1.18640186e-14, w: -1.62920685e-07}
        inSlope: {x: 1.83240342, y: .0509741418, z: -2.98536435e-07, w: -8.30465474e-09}
        outSlope: {x: 1.83240342, y: .0509741418, z: -2.98536435e-07, w: -8.30465474e-09}
        tangentMode: 1634890305
      - time: .416666627
        value: {x: .0486237593, y: .998817146, z: -7.92181609e-09, w: -1.62727972e-07}
        inSlope: {x: .903612971, y: -.034069784, z: -3.9498282e-08, w: 1.43200123e-06}
        outSlope: {x: .903612971, y: -.034069784, z: -3.9498282e-08, w: 1.43200123e-06}
        tangentMode: 103
      - time: .458333284
        value: {x: .0753009915, y: .997160852, z: -3.29151084e-09, w: -4.35872849e-08}
        inSlope: {x: .639607966, y: -.0482997596, z: 4.15987103e-08, w: 1.43093109e-06}
        outSlope: {x: .639607966, y: -.0482997596, z: 4.15987103e-08, w: 1.43093109e-06}
        tangentMode: 0
      - time: .5
        value: {x: .101924449, y: .994792163, z: -4.45525927e-09, w: -4.34837482e-08}
        inSlope: {x: .638962209, y: -.0568484589, z: -2.79299286e-08, w: 2.48487875e-09}
        outSlope: {x: .638962209, y: -.0568484589, z: -2.79299286e-08, w: 2.48487875e-09}
        tangentMode: 510978860
      m_PreInfinity: 2
      m_PostInfinity: 2
    path: sprite/upper_left_leg
  - curve:
      serializedVersion: 2
      m_Curve:
      - time: 0
        value: {x: 0, y: 0, z: .653420568, w: .756995082}
        inSlope: {x: 0, y: 0, z: 1.38200283, w: -1.29137135}
        outSlope: {x: 0, y: 0, z: 1.38200283, w: -1.29137135}
        tangentMode: 679
      - time: .0416666679
        value: {x: 0, y: 0, z: .711004019, w: .703187943}
        inSlope: {x: 0, y: 0, z: 1.32900953, w: -1.34378171}
        outSlope: {x: 0, y: 0, z: 1.32900953, w: -1.34378171}
        tangentMode: 0
      - time: .0833333358
        value: {x: 0, y: 0, z: .764171362, w: .645013273}
        inSlope: {x: 0, y: 0, z: .496930361, w: -.533981323}
        outSlope: {x: 0, y: 0, z: .496930361, w: -.533981323}
        tangentMode: -605624877
      - time: .125
        value: {x: 0, y: 0, z: .752414882, w: .658689499}
        inSlope: {x: 0, y: 0, z: -1.9120872, w: 1.81608915}
        outSlope: {x: 0, y: 0, z: -1.9120872, w: 1.81608915}
        tangentMode: 0
      - time: .166666672
        value: {x: 0, y: 0, z: .604830742, w: .796354055}
        inSlope: {x: 0, y: 0, z: -4.90834093, w: 3.36605597}
        outSlope: {x: 0, y: 0, z: -4.90834093, w: 3.36605597}
        tangentMode: 508002944
      - time: .208333343
        value: {x: 0, y: 0, z: .343386412, w: .939194202}
        inSlope: {x: 0, y: 0, z: -5.82672405, w: 2.35809302}
        outSlope: {x: 0, y: 0, z: -5.82672405, w: 2.35809302}
        tangentMode: 501284900
      - time: .25
        value: {x: 0, y: 0, z: .119270444, w: .992861807}
        inSlope: {x: 0, y: 0, z: -4.07836199, w: .729595363}
        outSlope: {x: 0, y: 0, z: -4.07836199, w: .729595363}
        tangentMode: 506642652
      - time: .291666657
        value: {x: 0, y: 0, z: .00352299283, w: .999993801}
        inSlope: {x: 0, y: 0, z: -1.96436524, w: .0738101229}
        outSlope: {x: 0, y: 0, z: -1.96436524, w: .0738101229}
        tangentMode: 0
      - time: .333333313
        value: {x: 0, y: 0, z: -.04442662, w: .999012649}
        inSlope: {x: 0, y: 0, z: -.0422766805, w: 7.43865967e-05}
        outSlope: {x: 0, y: 0, z: -.0422766805, w: 7.43865967e-05}
        tangentMode: 1
      - time: .37499997
        value: {x: 0, y: 0, z: -6.23137808e-08, w: 1}
        inSlope: {x: 0, y: 0, z: 2.63140821, w: -.173026845}
        outSlope: {x: 0, y: 0, z: 2.63140821, w: -.173026845}
        tangentMode: 1717922911
      - time: .416666627
        value: {x: 0, y: 0, z: .174857363, w: .984593749}
        inSlope: {x: 0, y: 0, z: 5.15387535, w: -1.16313767}
        outSlope: {x: 0, y: 0, z: 5.15387535, w: -1.16313767}
        tangentMode: 516655996
      - time: .458333284
        value: {x: 0, y: 0, z: .429489464, w: .90307188}
        inSlope: {x: 0, y: 0, z: 5.74275589, w: -2.7311821}
        outSlope: {x: 0, y: 0, z: 5.74275589, w: -2.7311821}
        tangentMode: 505414932
      - time: .5
        value: {x: 0, y: 0, z: .653420568, w: .756995082}
        inSlope: {x: 0, y: 0, z: 5.37434006, w: -3.50583887}
        outSlope: {x: 0, y: 0, z: 5.37434006, w: -3.50583887}
        tangentMode: 0
      m_PreInfinity: 2
      m_PostInfinity: 2
    path: sprite/upper_left_leg/lower_left_leg
  - curve:
      serializedVersion: 2
      m_Curve:
      - time: 0
        value: {x: 0, y: 0, z: -.384698123, w: .923042476}
        inSlope: {x: 0, y: 0, z: 3.73247433, w: 1.20820713}
        outSlope: {x: 0, y: 0, z: 3.73247433, w: 1.20820713}
        tangentMode: 107022896
      - time: .0416666679
        value: {x: 0, y: 0, z: -.229178354, w: .97338444}
        inSlope: {x: 0, y: 0, z: 3.8059597, w: .89609313}
        outSlope: {x: 0, y: 0, z: 3.8059597, w: .89609313}
        tangentMode: 106384244
      - time: .0833333358
        value: {x: 0, y: 0, z: -.0675348043, w: .997716904}
        inSlope: {x: 0, y: 0, z: 2.75014019, w: .319386721}
        outSlope: {x: 0, y: 0, z: 2.75014019, w: .319386721}
        tangentMode: 106407264
      - time: .125
        value: {x: 0, y: 0, z: 0, w: 1}
        inSlope: {x: 0, y: 0, z: -.358956039, w: -.0297152903}
        outSlope: {x: 0, y: 0, z: -.358956039, w: -.0297152903}
        tangentMode: 107009788
      - time: .166666672
        value: {x: 0, y: 0, z: -.0974478275, w: .995240629}
        inSlope: {x: 0, y: 0, z: -3.44598627, w: -.505428255}
        outSlope: {x: 0, y: 0, z: -3.44598627, w: -.505428255}
        tangentMode: 107035528
      - time: .208333343
        value: {x: 0, y: 0, z: -.287165552, w: .957880974}
        inSlope: {x: 0, y: 0, z: -4.26171064, w: -1.24226487}
        outSlope: {x: 0, y: 0, z: -4.26171064, w: -1.24226487}
        tangentMode: 106384244
      - time: .25
        value: {x: 0, y: 0, z: -.452590346, w: .891718566}
        inSlope: {x: 0, y: 0, z: -3.50687361, w: -1.7140944}
        outSlope: {x: 0, y: 0, z: -3.50687361, w: -1.7140944}
        tangentMode: 106134708
      - time: .291666657
        value: {x: 0, y: 0, z: -.57940495, w: .815039814}
        inSlope: {x: 0, y: 0, z: -2.75794363, w: -1.92908812}
        outSlope: {x: 0, y: 0, z: -2.75794363, w: -1.92908812}
        tangentMode: 106134708
      - time: .333333313
        value: {x: 0, y: 0, z: -.682418942, w: .730961263}
        inSlope: {x: 0, y: 0, z: -1.6719414, w: -1.43704855}
        outSlope: {x: 0, y: 0, z: -1.6719414, w: -1.43704855}
        tangentMode: 106384244
      - time: .37499997
        value: {x: 0, y: 0, z: -.71873337, w: .695285797}
        inSlope: {x: 0, y: 0, z: .266937107, w: .241815895}
        outSlope: {x: 0, y: 0, z: .266937107, w: .241815895}
        tangentMode: 107000776
      - time: .416666627
        value: {x: 0, y: 0, z: -.660174191, w: .75111258}
        inSlope: {x: 0, y: 0, z: 2.27126145, w: 1.83657765}
        outSlope: {x: 0, y: 0, z: 2.27126145, w: 1.83657765}
        tangentMode: 14
      - time: .458333284
        value: {x: 0, y: 0, z: -.529461622, w: .848333895}
        inSlope: {x: 0, y: 0, z: 3.30571127, w: 2.06315804}
        outSlope: {x: 0, y: 0, z: 3.30571127, w: 2.06315804}
        tangentMode: 0
      - time: .5
        value: {x: 0, y: 0, z: -.384698123, w: .923042476}
        inSlope: {x: 0, y: 0, z: 3.47431993, w: 1.7930038}
        outSlope: {x: 0, y: 0, z: 3.47431993, w: 1.7930038}
        tangentMode: 0
      m_PreInfinity: 2
      m_PostInfinity: 2
    path: sprite/upper_right_leg/lower_right_leg
  m_CompressedRotationCurves: []
  m_PositionCurves:
  - curve:
      serializedVersion: 2
      m_Curve:
      - time: 0
        value: {x: -.4142524, y: .172603831, z: 0}
        inSlope: {x: 3.40596294, y: -.276164889, z: 0}
        outSlope: {x: 3.40596294, y: -.276164889, z: 0}
        tangentMode: 0
      - time: .125
        value: {x: .0114929667, y: .13808322, z: 0}
        inSlope: {x: 1.93305731, y: -.460276544, z: 3.81469727e-06}
        outSlope: {x: 1.93305731, y: -.460276544, z: 3.81469727e-06}
        tangentMode: 506595964
      - time: .25
        value: {x: .0690119192, y: .0575346909, z: 9.53674316e-07}
        inSlope: {x: -.92061758, y: -.552331924, z: 3.81469727e-06}
        outSlope: {x: -.92061758, y: -.552331924, z: 3.81469727e-06}
        tangentMode: -1
      - time: .375
        value: {x: -.218661427, y: 2.38418579e-07, z: 9.53674316e-07}
        inSlope: {x: -1.93305731, y: .460276544, z: -3.81469727e-06}
        outSlope: {x: -1.93305731, y: .460276544, z: -3.81469727e-06}
        tangentMode: 0
      - time: .5
        value: {x: -.4142524, y: .172603831, z: 0}
        inSlope: {x: -1.56472778, y: 1.38082874, z: -7.62939453e-06}
        outSlope: {x: -1.56472778, y: 1.38082874, z: -7.62939453e-06}
        tangentMode: 506825612
      m_PreInfinity: 2
      m_PostInfinity: 2
    path: sprite/upper_left_leg
  - curve:
      serializedVersion: 2
      m_Curve:
      - time: 0
        value: {x: .126574278, y: -.0920553207, z: 0}
        inSlope: {x: -1.47287464, y: 1.01260948, z: 0}
        outSlope: {x: -1.47287464, y: 1.01260948, z: 0}
        tangentMode: 0
      - time: .125
        value: {x: -.0575350486, y: .0345208645, z: 0}
        inSlope: {x: -.67250967, y: .470504284, z: 0}
        outSlope: {x: -.67250967, y: .470504284, z: 0}
        tangentMode: 0
      - time: .375
        value: {x: -.0255712271, y: .016620636, z: 0}
        inSlope: {x: .67250967, y: -.470504284, z: 0}
        outSlope: {x: .67250967, y: -.470504284, z: 0}
        tangentMode: 1065353216
      - time: .5
        value: {x: .126574278, y: -.0920553207, z: 0}
        inSlope: {x: 1.21716404, y: -.869407654, z: 0}
        outSlope: {x: 1.21716404, y: -.869407654, z: 0}
        tangentMode: 0
      m_PreInfinity: 2
      m_PostInfinity: 2
    path: sprite/upper_right_leg
  m_ScaleCurves: []
  m_FloatCurves: []
  m_PPtrCurves: []
  m_SampleRate: 24
  m_WrapMode: 0
  m_Bounds:
    m_Center: {x: 0, y: 0, z: 0}
    m_Extent: {x: 0, y: 0, z: 0}
  m_ClipBindingConstant:
    genericBindings:
    - path: 1562554038
      attribute: 1
      script: {fileID: 0}
      classID: 4
      customType: 0
      isPPtrCurve: 0
    - path: 2871884494
      attribute: 1
      script: {fileID: 0}
      classID: 4
      customType: 0
      isPPtrCurve: 0
    - path: 2871884494
      attribute: 2
      script: {fileID: 0}
      classID: 4
      customType: 0
      isPPtrCurve: 0
    - path: 1562554038
      attribute: 2
      script: {fileID: 0}
      classID: 4
      customType: 0
      isPPtrCurve: 0
    - path: 1801043617
      attribute: 2
      script: {fileID: 0}
      classID: 4
      customType: 0
      isPPtrCurve: 0
    - path: 573631261
      attribute: 2
      script: {fileID: 0}
      classID: 4
      customType: 0
      isPPtrCurve: 0
    pptrCurveMapping: []
  m_AnimationClipSettings:
    serializedVersion: 2
    m_StartTime: 0
    m_StopTime: .5
    m_OrientationOffsetY: 0
    m_Level: 0
    m_CycleOffset: 0
    m_LoopTime: 1
    m_LoopBlend: 0
    m_LoopBlendOrientation: 0
    m_LoopBlendPositionY: 0
    m_LoopBlendPositionXZ: 0
    m_KeepOriginalOrientation: 0
    m_KeepOriginalPositionY: 1
    m_KeepOriginalPositionXZ: 0
    m_HeightFromFeet: 0
    m_Mirror: 0
  m_EditorCurves:
  - curve:
      serializedVersion: 2
      m_Curve:
      - time: 0
        value: 0
        inSlope: 0
        outSlope: 0
        tangentMode: 10
      - time: .125
        value: 0
        inSlope: 3.81469727e-06
        outSlope: 3.81469727e-06
        tangentMode: 10
      - time: .25
        value: 9.53674316e-07
        inSlope: 3.81469727e-06
        outSlope: 3.81469727e-06
        tangentMode: 10
      - time: .375
        value: 9.53674316e-07
        inSlope: -3.81469727e-06
        outSlope: -3.81469727e-06
        tangentMode: 10
      - time: .5
        value: 0
        inSlope: -7.62939453e-06
        outSlope: -7.62939453e-06
        tangentMode: 10
      m_PreInfinity: 2
      m_PostInfinity: 2
    attribute: m_LocalPosition.z
    path: sprite/upper_left_leg
    classID: 4
    script: {fileID: 0}
  - curve:
      serializedVersion: 2
      m_Curve:
      - time: 0
        value: .172603831
        inSlope: -.276164889
        outSlope: -.276164889
        tangentMode: 10
      - time: .125
        value: .13808322
        inSlope: -.460276544
        outSlope: -.460276544
        tangentMode: 10
      - time: .25
        value: .0575346909
        inSlope: -.552331924
        outSlope: -.552331924
        tangentMode: 10
      - time: .375
        value: 2.38418579e-07
        inSlope: .460276544
        outSlope: .460276544
        tangentMode: 10
      - time: .5
        value: .172603831
        inSlope: 1.38082874
        outSlope: 1.38082874
        tangentMode: 10
      m_PreInfinity: 2
      m_PostInfinity: 2
    attribute: m_LocalPosition.y
    path: sprite/upper_left_leg
    classID: 4
    script: {fileID: 0}
  - curve:
      serializedVersion: 2
      m_Curve:
      - time: 0
        value: -.4142524
        inSlope: 3.40596294
        outSlope: 3.40596294
        tangentMode: 10
      - time: .125
        value: .0114929667
        inSlope: 1.93305731
        outSlope: 1.93305731
        tangentMode: 10
      - time: .25
        value: .0690119192
        inSlope: -.92061758
        outSlope: -.92061758
        tangentMode: 10
      - time: .375
        value: -.218661427
        inSlope: -1.93305731
        outSlope: -1.93305731
        tangentMode: 10
      - time: .5
        value: -.4142524
        inSlope: -1.56472778
        outSlope: -1.56472778
        tangentMode: 10
      m_PreInfinity: 2
      m_PostInfinity: 2
    attribute: m_LocalPosition.x
    path: sprite/upper_left_leg
    classID: 4
    script: {fileID: 0}
  - curve:
      serializedVersion: 2
      m_Curve:
      - time: 0
        value: .867765486
        inSlope: 1.81560659
        outSlope: 1.81560659
        tangentMode: 0
      - time: .0416666679
        value: .943415761
        inSlope: 1.44125032
        outSlope: 1.44125032
        tangentMode: 0
      - time: .0833333358
        value: .98786968
        inSlope: .679010868
        outSlope: .679010868
        tangentMode: 0
      - time: .125
        value: 1
        inSlope: .0324755013
        outSlope: .0324755013
        tangentMode: 0
      - time: .166666672
        value: .990575969
        inSlope: -.36894244
        outSlope: -.36894244
        tangentMode: 0
      - time: .208333343
        value: .969254792
        inSlope: -.369247913
        outSlope: -.369247913
        tangentMode: 0
      - time: .25
        value: .95980531
        inSlope: .119694501
        outSlope: .119694501
        tangentMode: 0
      - time: .291666657
        value: .979229331
        inSlope: .468217969
        outSlope: .468217969
        tangentMode: 0
      - time: .333333313
        value: .998823464
        inSlope: .177924201
        outSlope: .177924201
        tangentMode: 0
      - time: .37499997
        value: .994056344
        inSlope: -.34364754
        outSlope: -.34364754
        tangentMode: 0
      - time: .416666627
        value: .970186174
        inSlope: -.795653522
        outSlope: -.795653522
        tangentMode: 0
      - time: .458333284
        value: .927751899
        inSlope: -1.22904754
        outSlope: -1.22904754
        tangentMode: 0
      - time: .5
        value: .867765486
        inSlope: -1.43967223
        outSlope: -1.43967223
        tangentMode: 0
      m_PreInfinity: 2
      m_PostInfinity: 2
    attribute: m_LocalRotation.w
    path: sprite/upper_right_leg
    classID: 4
    script: {fileID: 0}
  - curve:
      serializedVersion: 2
      m_Curve:
      - time: 0
        value: .496973962
        inSlope: -3.96868014
        outSlope: -3.96868014
        tangentMode: 0
      - time: .0416666679
        value: .331612289
        inSlope: -4.10026598
        outSlope: -4.10026598
        tangentMode: 0
      - time: .0833333358
        value: .15528512
        inSlope: -3.97934771
        outSlope: -3.97934771
        tangentMode: 0
      - time: .125
        value: 0
        inSlope: -3.50699329
        outSlope: -3.50699329
        tangentMode: 0
      - time: .166666672
        value: -.136964321
        inSlope: -2.95271134
        outSlope: -2.95271134
        tangentMode: 0
      - time: .208333343
        value: -.246059313
        inSlope: -1.72442818
        outSlope: -1.72442818
        tangentMode: 0
      - time: .25
        value: -.280666679
        inSlope: .519643784
        outSlope: .519643784
        tangentMode: 0
      - time: .291666657
        value: -.202755675
        inSlope: 2.78606391
        outSlope: 2.78606391
        tangentMode: 0
      - time: .333333313
        value: -.0484947376
        inSlope: 3.73947024
        outSlope: 3.73947024
        tangentMode: 0
      - time: .37499997
        value: .108866774
        inSlope: 3.49026728
        outSlope: 3.49026728
        tangentMode: 0
      - time: .416666627
        value: .242360786
        inSlope: 3.17196989
        outSlope: 3.17196989
        tangentMode: 0
      - time: .458333284
        value: .373197526
        inSlope: 3.05535674
        outSlope: 3.05535674
        tangentMode: 0
      - time: .5
        value: .496973962
        inSlope: 2.97063088
        outSlope: 2.97063088
        tangentMode: 0
      m_PreInfinity: 2
      m_PostInfinity: 2
    attribute: m_LocalRotation.z
    path: sprite/upper_right_leg
    classID: 4
    script: {fileID: 0}
  - curve:
      serializedVersion: 2
      m_Curve:
      - time: 0
        value: 0
        inSlope: 0
        outSlope: 0
        tangentMode: 0
      - time: .0416666679
        value: 0
        inSlope: 0
        outSlope: 0
        tangentMode: 0
      - time: .0833333358
        value: 0
        inSlope: 0
        outSlope: 0
        tangentMode: 0
      - time: .125
        value: 0
        inSlope: 0
        outSlope: 0
        tangentMode: 0
      - time: .166666672
        value: 0
        inSlope: 0
        outSlope: 0
        tangentMode: 0
      - time: .208333343
        value: 0
        inSlope: 0
        outSlope: 0
        tangentMode: 0
      - time: .25
        value: 0
        inSlope: 0
        outSlope: 0
        tangentMode: 0
      - time: .291666657
        value: 0
        inSlope: 0
        outSlope: 0
        tangentMode: 0
      - time: .333333313
        value: 0
        inSlope: 0
        outSlope: 0
        tangentMode: 0
      - time: .37499997
        value: 0
        inSlope: 0
        outSlope: 0
        tangentMode: 0
      - time: .416666627
        value: 0
        inSlope: 0
        outSlope: 0
        tangentMode: 0
      - time: .458333284
        value: 0
        inSlope: 0
        outSlope: 0
        tangentMode: 0
      - time: .5
        value: 0
        inSlope: 0
        outSlope: 0
        tangentMode: 0
      m_PreInfinity: 2
      m_PostInfinity: 2
    attribute: m_LocalRotation.y
    path: sprite/upper_right_leg
    classID: 4
    script: {fileID: 0}
  - curve:
      serializedVersion: 2
      m_Curve:
      - time: 0
        value: 0
        inSlope: 0
        outSlope: 0
        tangentMode: 0
      - time: .0416666679
        value: 0
        inSlope: 0
        outSlope: 0
        tangentMode: 0
      - time: .0833333358
        value: 0
        inSlope: 0
        outSlope: 0
        tangentMode: 0
      - time: .125
        value: 0
        inSlope: 0
        outSlope: 0
        tangentMode: 0
      - time: .166666672
        value: 0
        inSlope: 0
        outSlope: 0
        tangentMode: 0
      - time: .208333343
        value: 0
        inSlope: 0
        outSlope: 0
        tangentMode: 0
      - time: .25
        value: 0
        inSlope: 0
        outSlope: 0
        tangentMode: 0
      - time: .291666657
        value: 0
        inSlope: 0
        outSlope: 0
        tangentMode: 0
      - time: .333333313
        value: 0
        inSlope: 0
        outSlope: 0
        tangentMode: 0
      - time: .37499997
        value: 0
        inSlope: 0
        outSlope: 0
        tangentMode: 0
      - time: .416666627
        value: 0
        inSlope: 0
        outSlope: 0
        tangentMode: 0
      - time: .458333284
        value: 0
        inSlope: 0
        outSlope: 0
        tangentMode: 0
      - time: .5
        value: 0
        inSlope: 0
        outSlope: 0
        tangentMode: 0
      m_PreInfinity: 2
      m_PostInfinity: 2
    attribute: m_LocalRotation.x
    path: sprite/upper_right_leg
    classID: 4
    script: {fileID: 0}
  - curve:
      serializedVersion: 2
      m_Curve:
      - time: 0
        value: -4.34837482e-08
        inSlope: -4.55690952e-09
        outSlope: -4.55690952e-09
        tangentMode: 0
      - time: .0416666679
        value: -4.36736194e-08
        inSlope: -1.43289208e-06
        outSlope: -1.43289208e-06
        tangentMode: 0
      - time: .0833333358
        value: -1.62891425e-07
        inSlope: -1.42424119e-06
        outSlope: -1.42424119e-06
        tangentMode: 0
      - time: .125
        value: -1.62360394e-07
        inSlope: 2.84500725e-08
        outSlope: 2.84500725e-08
        tangentMode: 0
      - time: .166666672
        value: -1.60520585e-07
        inSlope: 6.11345783e-08
        outSlope: 6.11345783e-08
        tangentMode: 0
      - time: .208333343
        value: -1.57265845e-07
        inSlope: 5.81279664e-08
        outSlope: 5.81279664e-08
        tangentMode: 0
      - time: .25
        value: -1.55676588e-07
        inSlope: -1.61765019e-08
        outSlope: -1.61765019e-08
        tangentMode: 0
      - time: .291666657
        value: -1.58613886e-07
        inSlope: -7.6311963e-08
        outSlope: -7.6311963e-08
        tangentMode: 0
      - time: .333333313
        value: -1.62035917e-07
        inSlope: -5.16815959e-08
        outSlope: -5.16815959e-08
        tangentMode: 0
      - time: .37499997
        value: -1.62920685e-07
        inSlope: -8.30465474e-09
        outSlope: -8.30465474e-09
        tangentMode: 0
      - time: .416666627
        value: -1.62727972e-07
        inSlope: 1.43200123e-06
        outSlope: 1.43200123e-06
        tangentMode: 0
      - time: .458333284
        value: -4.35872849e-08
        inSlope: 1.43093109e-06
        outSlope: 1.43093109e-06
        tangentMode: 0
      - time: .5
        value: -4.34837482e-08
        inSlope: 2.48487875e-09
        outSlope: 2.48487875e-09
        tangentMode: 0
      m_PreInfinity: 2
      m_PostInfinity: 2
    attribute: m_LocalRotation.w
    path: sprite/upper_left_leg
    classID: 4
    script: {fileID: 0}
  - curve:
      serializedVersion: 2
      m_Curve:
      - time: 0
        value: -4.45525927e-09
        inSlope: 6.33237818e-08
        outSlope: 6.33237818e-08
        tangentMode: 0
      - time: .0416666679
        value: -1.81676829e-09
        inSlope: 9.05133106e-08
        outSlope: 9.05133106e-08
        tangentMode: 0
      - time: .0833333358
        value: 3.08751669e-09
        inSlope: 1.83801546e-07
        outSlope: 1.83801546e-07
        tangentMode: 0
      - time: .125
        value: 1.3500026e-08
        inSlope: 2.97293639e-07
        outSlope: 2.97293639e-07
        tangentMode: 0
      - time: .166666672
        value: 2.78619865e-08
        inSlope: 3.48613924e-07
        outSlope: 3.48613924e-07
        tangentMode: 0
      - time: .208333343
        value: 4.25511892e-08
        inSlope: 2.42149611e-07
        outSlope: 2.42149611e-07
        tangentMode: 0
      - time: .25
        value: 4.80411195e-08
        inSlope: -6.40619646e-08
        outSlope: -6.40619646e-08
        tangentMode: 0
      - time: .291666657
        value: 3.72126934e-08
        inSlope: -3.73018963e-07
        outSlope: -3.73018963e-07
        tangentMode: 0
      - time: .333333313
        value: 1.69562142e-08
        inSlope: -4.46552292e-07
        outSlope: -4.46552292e-07
        tangentMode: 0
      - time: .37499997
        value: 1.18640186e-14
        inSlope: -2.98536435e-07
        outSlope: -2.98536435e-07
        tangentMode: 0
      - time: .416666627
        value: -7.92181609e-09
        inSlope: -3.9498282e-08
        outSlope: -3.9498282e-08
        tangentMode: 0
      - time: .458333284
        value: -3.29151084e-09
        inSlope: 4.15987103e-08
        outSlope: 4.15987103e-08
        tangentMode: 0
      - time: .5
        value: -4.45525927e-09
        inSlope: -2.79299286e-08
        outSlope: -2.79299286e-08
        tangentMode: 0
      m_PreInfinity: 2
      m_PostInfinity: 2
    attribute: m_LocalRotation.z
    path: sprite/upper_left_leg
    classID: 4
    script: {fileID: 0}
  - curve:
      serializedVersion: 2
      m_Curve:
      - time: 0
        value: .994792163
        inSlope: .104249954
        outSlope: .104249954
        tangentMode: 0
      - time: .0416666679
        value: .999135911
        inSlope: .060338974
        outSlope: .060338974
        tangentMode: 0
      - time: .0833333358
        value: .999820411
        inSlope: -.0308990516
        outSlope: -.0308990516
        tangentMode: 0
      - time: .125
        value: .996560991
        inSlope: -.174625382
        outSlope: -.174625382
        tangentMode: 0
      - time: .166666672
        value: .985268295
        inSlope: -.375241697
        outSlope: -.375241697
        tangentMode: 0
      - time: .208333343
        value: .965290844
        inSlope: -.356786728
        outSlope: -.356786728
        tangentMode: 0
      - time: .25
        value: .955536067
        inSlope: .0992903858
        outSlope: .0992903858
        tangentMode: 0
      - time: .291666657
        value: .973565042
        inSlope: .468398929
        outSlope: .468398929
        tangentMode: 0
      - time: .333333313
        value: .994569302
        inSlope: .317219555
        outSlope: .317219555
        tangentMode: 0
      - time: .37499997
        value: 1
        inSlope: .0509741418
        outSlope: .0509741418
        tangentMode: 0
      - time: .416666627
        value: .998817146
        inSlope: -.034069784
        outSlope: -.034069784
        tangentMode: 0
      - time: .458333284
        value: .997160852
        inSlope: -.0482997596
        outSlope: -.0482997596
        tangentMode: 0
      - time: .5
        value: .994792163
        inSlope: -.0568484589
        outSlope: -.0568484589
        tangentMode: 0
      m_PreInfinity: 2
      m_PostInfinity: 2
    attribute: m_LocalRotation.y
    path: sprite/upper_left_leg
    classID: 4
    script: {fileID: 0}
  - curve:
      serializedVersion: 2
      m_Curve:
      - time: 0
        value: .101924449
        inSlope: -1.44867921
        outSlope: -1.44867921
        tangentMode: 0
      - time: .0416666679
        value: .0415628143
        inSlope: -1.45050585
        outSlope: -1.45050585
        tangentMode: 0
      - time: .0833333358
        value: -.0189510416
        inSlope: -1.49310446
        outSlope: -1.49310446
        tangentMode: 0
      - time: .125
        value: -.0828625634
        inSlope: -1.82477522
        outSlope: -1.82477522
        tangentMode: 0
      - time: .166666672
        value: -.17101565
        inSlope: -2.13977695
        outSlope: -2.13977695
        tangentMode: 0
      - time: .208333343
        value: -.261177331
        inSlope: -1.48630357
        outSlope: -1.48630357
        tangentMode: 0
      - time: .25
        value: -.294874281
        inSlope: .393209428
        outSlope: .393209428
        tangentMode: 0
      - time: .291666657
        value: -.228409886
        inSlope: 2.28957391
        outSlope: 2.28957391
        tangentMode: 0
      - time: .333333313
        value: -.104076497
        inSlope: 2.7409184
        outSlope: 2.7409184
        tangentMode: 0
      - time: .37499997
        value: -7.28208249e-08
        inSlope: 1.83240342
        outSlope: 1.83240342
        tangentMode: 0
      - time: .416666627
        value: .0486237593
        inSlope: .903612971
        outSlope: .903612971
        tangentMode: 0
      - time: .458333284
        value: .0753009915
        inSlope: .639607966
        outSlope: .639607966
        tangentMode: 0
      - time: .5
        value: .101924449
        inSlope: .638962209
        outSlope: .638962209
        tangentMode: 0
      m_PreInfinity: 2
      m_PostInfinity: 2
    attribute: m_LocalRotation.x
    path: sprite/upper_left_leg
    classID: 4
    script: {fileID: 0}
  - curve:
      serializedVersion: 2
      m_Curve:
      - time: 0
        value: .126574278
        inSlope: -1.47287464
        outSlope: -1.47287464
        tangentMode: 10
      - time: .125
        value: -.0575350486
        inSlope: -.67250967
        outSlope: -.67250967
        tangentMode: 10
      - time: .375
        value: -.0255712271
        inSlope: .67250967
        outSlope: .67250967
        tangentMode: 10
      - time: .5
        value: .126574278
        inSlope: 1.21716404
        outSlope: 1.21716404
        tangentMode: 10
      m_PreInfinity: 2
      m_PostInfinity: 2
    attribute: m_LocalPosition.x
    path: sprite/upper_right_leg
    classID: 4
    script: {fileID: 0}
  - curve:
      serializedVersion: 2
      m_Curve:
      - time: 0
        value: -.0920553207
        inSlope: 1.01260948
        outSlope: 1.01260948
        tangentMode: 10
      - time: .125
        value: .0345208645
        inSlope: .470504284
        outSlope: .470504284
        tangentMode: 10
      - time: .375
        value: .016620636
        inSlope: -.470504284
        outSlope: -.470504284
        tangentMode: 10
      - time: .5
        value: -.0920553207
        inSlope: -.869407654
        outSlope: -.869407654
        tangentMode: 10
      m_PreInfinity: 2
      m_PostInfinity: 2
    attribute: m_LocalPosition.y
    path: sprite/upper_right_leg
    classID: 4
    script: {fileID: 0}
  - curve:
      serializedVersion: 2
      m_Curve:
      - time: 0
        value: 0
        inSlope: 0
        outSlope: 0
        tangentMode: 10
      - time: .125
        value: 0
        inSlope: 0
        outSlope: 0
        tangentMode: 10
      - time: .375
        value: 0
        inSlope: 0
        outSlope: 0
        tangentMode: 10
      - time: .5
        value: 0
        inSlope: 0
        outSlope: 0
        tangentMode: 10
      m_PreInfinity: 2
      m_PostInfinity: 2
    attribute: m_LocalPosition.z
    path: sprite/upper_right_leg
    classID: 4
    script: {fileID: 0}
  - curve:
      serializedVersion: 2
      m_Curve:
      - time: 0
        value: .756995082
        inSlope: -1.29137135
        outSlope: -1.29137135
        tangentMode: 0
      - time: .0416666679
        value: .703187943
        inSlope: -1.34378171
        outSlope: -1.34378171
        tangentMode: 0
      - time: .0833333358
        value: .645013273
        inSlope: -.533981323
        outSlope: -.533981323
        tangentMode: 0
      - time: .125
        value: .658689499
        inSlope: 1.81608915
        outSlope: 1.81608915
        tangentMode: 0
      - time: .166666672
        value: .796354055
        inSlope: 3.36605597
        outSlope: 3.36605597
        tangentMode: 0
      - time: .208333343
        value: .939194202
        inSlope: 2.35809302
        outSlope: 2.35809302
        tangentMode: 0
      - time: .25
        value: .992861807
        inSlope: .729595363
        outSlope: .729595363
        tangentMode: 0
      - time: .291666657
        value: .999993801
        inSlope: .0738101229
        outSlope: .0738101229
        tangentMode: 0
      - time: .333333313
        value: .999012649
        inSlope: 7.43865967e-05
        outSlope: 7.43865967e-05
        tangentMode: 0
      - time: .37499997
        value: 1
        inSlope: -.173026845
        outSlope: -.173026845
        tangentMode: 0
      - time: .416666627
        value: .984593749
        inSlope: -1.16313767
        outSlope: -1.16313767
        tangentMode: 0
      - time: .458333284
        value: .90307188
        inSlope: -2.7311821
        outSlope: -2.7311821
        tangentMode: 0
      - time: .5
        value: .756995082
        inSlope: -3.50583887
        outSlope: -3.50583887
        tangentMode: 0
      m_PreInfinity: 2
      m_PostInfinity: 2
    attribute: m_LocalRotation.w
    path: sprite/upper_left_leg/lower_left_leg
    classID: 4
    script: {fileID: 0}
  - curve:
      serializedVersion: 2
      m_Curve:
      - time: 0
        value: .653420568
        inSlope: 1.38200283
        outSlope: 1.38200283
        tangentMode: 0
      - time: .0416666679
        value: .711004019
        inSlope: 1.32900953
        outSlope: 1.32900953
        tangentMode: 0
      - time: .0833333358
        value: .764171362
        inSlope: .496930361
        outSlope: .496930361
        tangentMode: 0
      - time: .125
        value: .752414882
        inSlope: -1.9120872
        outSlope: -1.9120872
        tangentMode: 0
      - time: .166666672
        value: .604830742
        inSlope: -4.90834093
        outSlope: -4.90834093
        tangentMode: 0
      - time: .208333343
        value: .343386412
        inSlope: -5.82672405
        outSlope: -5.82672405
        tangentMode: 0
      - time: .25
        value: .119270444
        inSlope: -4.07836199
        outSlope: -4.07836199
        tangentMode: 0
      - time: .291666657
        value: .00352299283
        inSlope: -1.96436524
        outSlope: -1.96436524
        tangentMode: 0
      - time: .333333313
        value: -.04442662
        inSlope: -.0422766805
        outSlope: -.0422766805
        tangentMode: 0
      - time: .37499997
        value: -6.23137808e-08
        inSlope: 2.63140821
        outSlope: 2.63140821
        tangentMode: 0
      - time: .416666627
        value: .174857363
        inSlope: 5.15387535
        outSlope: 5.15387535
        tangentMode: 0
      - time: .458333284
        value: .429489464
        inSlope: 5.74275589
        outSlope: 5.74275589
        tangentMode: 0
      - time: .5
        value: .653420568
        inSlope: 5.37434006
        outSlope: 5.37434006
        tangentMode: 0
      m_PreInfinity: 2
      m_PostInfinity: 2
    attribute: m_LocalRotation.z
    path: sprite/upper_left_leg/lower_left_leg
    classID: 4
    script: {fileID: 0}
  - curve:
      serializedVersion: 2
      m_Curve:
      - time: 0
        value: 0
        inSlope: 0
        outSlope: 0
        tangentMode: 0
      - time: .0416666679
        value: 0
        inSlope: 0
        outSlope: 0
        tangentMode: 0
      - time: .0833333358
        value: 0
        inSlope: 0
        outSlope: 0
        tangentMode: 0
      - time: .125
        value: 0
        inSlope: 0
        outSlope: 0
        tangentMode: 0
      - time: .166666672
        value: 0
        inSlope: 0
        outSlope: 0
        tangentMode: 0
      - time: .208333343
        value: 0
        inSlope: 0
        outSlope: 0
        tangentMode: 0
      - time: .25
        value: 0
        inSlope: 0
        outSlope: 0
        tangentMode: 0
      - time: .291666657
        value: 0
        inSlope: 0
        outSlope: 0
        tangentMode: 0
      - time: .333333313
        value: 0
        inSlope: 0
        outSlope: 0
        tangentMode: 0
      - time: .37499997
        value: 0
        inSlope: 0
        outSlope: 0
        tangentMode: 0
      - time: .416666627
        value: 0
        inSlope: 0
        outSlope: 0
        tangentMode: 0
      - time: .458333284
        value: 0
        inSlope: 0
        outSlope: 0
        tangentMode: 0
      - time: .5
        value: 0
        inSlope: 0
        outSlope: 0
        tangentMode: 0
      m_PreInfinity: 2
      m_PostInfinity: 2
    attribute: m_LocalRotation.y
    path: sprite/upper_left_leg/lower_left_leg
    classID: 4
    script: {fileID: 0}
  - curve:
      serializedVersion: 2
      m_Curve:
      - time: 0
        value: 0
        inSlope: 0
        outSlope: 0
        tangentMode: 0
      - time: .0416666679
        value: 0
        inSlope: 0
        outSlope: 0
        tangentMode: 0
      - time: .0833333358
        value: 0
        inSlope: 0
        outSlope: 0
        tangentMode: 0
      - time: .125
        value: 0
        inSlope: 0
        outSlope: 0
        tangentMode: 0
      - time: .166666672
        value: 0
        inSlope: 0
        outSlope: 0
        tangentMode: 0
      - time: .208333343
        value: 0
        inSlope: 0
        outSlope: 0
        tangentMode: 0
      - time: .25
        value: 0
        inSlope: 0
        outSlope: 0
        tangentMode: 0
      - time: .291666657
        value: 0
        inSlope: 0
        outSlope: 0
        tangentMode: 0
      - time: .333333313
        value: 0
        inSlope: 0
        outSlope: 0
        tangentMode: 0
      - time: .37499997
        value: 0
        inSlope: 0
        outSlope: 0
        tangentMode: 0
      - time: .416666627
        value: 0
        inSlope: 0
        outSlope: 0
        tangentMode: 0
      - time: .458333284
        value: 0
        inSlope: 0
        outSlope: 0
        tangentMode: 0
      - time: .5
        value: 0
        inSlope: 0
        outSlope: 0
        tangentMode: 0
      m_PreInfinity: 2
      m_PostInfinity: 2
    attribute: m_LocalRotation.x
    path: sprite/upper_left_leg/lower_left_leg
    classID: 4
    script: {fileID: 0}
  - curve:
      serializedVersion: 2
      m_Curve:
      - time: 0
        value: 0
        inSlope: 0
        outSlope: 0
        tangentMode: 0
      - time: .0416666679
        value: 0
        inSlope: 0
        outSlope: 0
        tangentMode: 0
      - time: .0833333358
        value: 0
        inSlope: 0
        outSlope: 0
        tangentMode: 0
      - time: .125
        value: 0
        inSlope: 0
        outSlope: 0
        tangentMode: 0
      - time: .166666672
        value: 0
        inSlope: 0
        outSlope: 0
        tangentMode: 0
      - time: .208333343
        value: 0
        inSlope: 0
        outSlope: 0
        tangentMode: 0
      - time: .25
        value: 0
        inSlope: 0
        outSlope: 0
        tangentMode: 0
      - time: .291666657
        value: 0
        inSlope: 0
        outSlope: 0
        tangentMode: 0
      - time: .333333313
        value: 0
        inSlope: 0
        outSlope: 0
        tangentMode: 0
      - time: .37499997
        value: 0
        inSlope: 0
        outSlope: 0
        tangentMode: 0
      - time: .416666627
        value: 0
        inSlope: 0
        outSlope: 0
        tangentMode: 0
      - time: .458333284
        value: 0
        inSlope: 0
        outSlope: 0
        tangentMode: 0
      - time: .5
        value: 0
        inSlope: 0
        outSlope: 0
        tangentMode: 0
      m_PreInfinity: 2
      m_PostInfinity: 2
    attribute: m_LocalRotation.x
    path: sprite/upper_right_leg/lower_right_leg
    classID: 4
    script: {fileID: 0}
  - curve:
      serializedVersion: 2
      m_Curve:
      - time: 0
        value: 0
        inSlope: 0
        outSlope: 0
        tangentMode: 0
      - time: .0416666679
        value: 0
        inSlope: 0
        outSlope: 0
        tangentMode: 0
      - time: .0833333358
        value: 0
        inSlope: 0
        outSlope: 0
        tangentMode: 0
      - time: .125
        value: 0
        inSlope: 0
        outSlope: 0
        tangentMode: 0
      - time: .166666672
        value: 0
        inSlope: 0
        outSlope: 0
        tangentMode: 0
      - time: .208333343
        value: 0
        inSlope: 0
        outSlope: 0
        tangentMode: 0
      - time: .25
        value: 0
        inSlope: 0
        outSlope: 0
        tangentMode: 0
      - time: .291666657
        value: 0
        inSlope: 0
        outSlope: 0
        tangentMode: 0
      - time: .333333313
        value: 0
        inSlope: 0
        outSlope: 0
        tangentMode: 0
      - time: .37499997
        value: 0
        inSlope: 0
        outSlope: 0
        tangentMode: 0
      - time: .416666627
        value: 0
        inSlope: 0
        outSlope: 0
        tangentMode: 0
      - time: .458333284
        value: 0
        inSlope: 0
        outSlope: 0
        tangentMode: 0
      - time: .5
        value: 0
        inSlope: 0
        outSlope: 0
        tangentMode: 0
      m_PreInfinity: 2
      m_PostInfinity: 2
    attribute: m_LocalRotation.y
    path: sprite/upper_right_leg/lower_right_leg
    classID: 4
    script: {fileID: 0}
  - curve:
      serializedVersion: 2
      m_Curve:
      - time: 0
        value: -.384698123
        inSlope: 3.73247433
        outSlope: 3.73247433
        tangentMode: 0
      - time: .0416666679
        value: -.229178354
        inSlope: 3.8059597
        outSlope: 3.8059597
        tangentMode: 0
      - time: .0833333358
        value: -.0675348043
        inSlope: 2.75014019
        outSlope: 2.75014019
        tangentMode: 0
      - time: .125
        value: 0
        inSlope: -.358956039
        outSlope: -.358956039
        tangentMode: 0
      - time: .166666672
        value: -.0974478275
        inSlope: -3.44598627
        outSlope: -3.44598627
        tangentMode: 0
      - time: .208333343
        value: -.287165552
        inSlope: -4.26171064
        outSlope: -4.26171064
        tangentMode: 0
      - time: .25
        value: -.452590346
        inSlope: -3.50687361
        outSlope: -3.50687361
        tangentMode: 0
      - time: .291666657
        value: -.57940495
        inSlope: -2.75794363
        outSlope: -2.75794363
        tangentMode: 0
      - time: .333333313
        value: -.682418942
        inSlope: -1.6719414
        outSlope: -1.6719414
        tangentMode: 0
      - time: .37499997
        value: -.71873337
        inSlope: .266937107
        outSlope: .266937107
        tangentMode: 0
      - time: .416666627
        value: -.660174191
        inSlope: 2.27126145
        outSlope: 2.27126145
        tangentMode: 0
      - time: .458333284
        value: -.529461622
        inSlope: 3.30571127
        outSlope: 3.30571127
        tangentMode: 0
      - time: .5
        value: -.384698123
        inSlope: 3.47431993
        outSlope: 3.47431993
        tangentMode: 0
      m_PreInfinity: 2
      m_PostInfinity: 2
    attribute: m_LocalRotation.z
    path: sprite/upper_right_leg/lower_right_leg
    classID: 4
    script: {fileID: 0}
  - curve:
      serializedVersion: 2
      m_Curve:
      - time: 0
        value: .923042476
        inSlope: 1.20820713
        outSlope: 1.20820713
        tangentMode: 0
      - time: .0416666679
        value: .97338444
        inSlope: .89609313
        outSlope: .89609313
        tangentMode: 0
      - time: .0833333358
        value: .997716904
        inSlope: .319386721
        outSlope: .319386721
        tangentMode: 0
      - time: .125
        value: 1
        inSlope: -.0297152903
        outSlope: -.0297152903
        tangentMode: 0
      - time: .166666672
        value: .995240629
        inSlope: -.505428255
        outSlope: -.505428255
        tangentMode: 0
      - time: .208333343
        value: .957880974
        inSlope: -1.24226487
        outSlope: -1.24226487
        tangentMode: 0
      - time: .25
        value: .891718566
        inSlope: -1.7140944
        outSlope: -1.7140944
        tangentMode: 0
      - time: .291666657
        value: .815039814
        inSlope: -1.92908812
        outSlope: -1.92908812
        tangentMode: 0
      - time: .333333313
        value: .730961263
        inSlope: -1.43704855
        outSlope: -1.43704855
        tangentMode: 0
      - time: .37499997
        value: .695285797
        inSlope: .241815895
        outSlope: .241815895
        tangentMode: 0
      - time: .416666627
        value: .75111258
        inSlope: 1.83657765
        outSlope: 1.83657765
        tangentMode: 0
      - time: .458333284
        value: .848333895
        inSlope: 2.06315804
        outSlope: 2.06315804
        tangentMode: 0
      - time: .5
        value: .923042476
        inSlope: 1.7930038
        outSlope: 1.7930038
        tangentMode: 0
      m_PreInfinity: 2
      m_PostInfinity: 2
    attribute: m_LocalRotation.w
    path: sprite/upper_right_leg/lower_right_leg
    classID: 4
    script: {fileID: 0}
  m_EulerEditorCurves:
  - curve:
      serializedVersion: 2
      m_Curve:
      - time: 0
        value: 0
        inSlope: 0
        outSlope: 0
        tangentMode: 10
      - time: .125
        value: 0
        inSlope: 0
        outSlope: 0
        tangentMode: 10
      - time: .25
        value: 0
        inSlope: 0
        outSlope: 0
        tangentMode: 10
      - time: .375
        value: 0
        inSlope: 0
        outSlope: 0
        tangentMode: 10
      - time: .5
        value: 0
        inSlope: 0
        outSlope: 0
        tangentMode: 10
      m_PreInfinity: 2
      m_PostInfinity: 2
    attribute: localEulerAnglesBaked.x
    path: sprite/upper_left_leg
    classID: 4
    script: {fileID: 0}
  - curve:
      serializedVersion: 2
      m_Curve:
      - time: 0
        value: 180
        inSlope: .000122070312
        outSlope: .000122070312
        tangentMode: 10
      - time: .125
        value: 180.000015
        inSlope: 6.10351562e-05
        outSlope: 6.10351562e-05
        tangentMode: 10
      - time: .25
        value: 180.000015
        inSlope: 0
        outSlope: 0
        tangentMode: 10
      - time: .375
        value: 180.000015
        inSlope: -6.10351562e-05
        outSlope: -6.10351562e-05
        tangentMode: 10
      - time: .5
        value: 180
        inSlope: -.000122070312
        outSlope: -.000122070312
        tangentMode: 10
      m_PreInfinity: 2
      m_PostInfinity: 2
    attribute: localEulerAnglesBaked.y
    path: sprite/upper_left_leg
    classID: 4
    script: {fileID: 0}
  - curve:
      serializedVersion: 2
      m_Curve:
      - time: 0
        value: 11.6999998
        inSlope: -169.649994
        outSlope: -169.649994
        tangentMode: 10
      - time: .125
        value: -9.50625038
        inSlope: -184
        outSlope: -184
        tangentMode: 10
      - time: .25
        value: -34.2999992
        inSlope: 38.0250015
        outSlope: 38.0250015
        tangentMode: 10
      - time: .375
        value: 0
        inSlope: 184
        outSlope: 184
        tangentMode: 10
      - time: .5
        value: 11.6999998
        inSlope: 93.5999985
        outSlope: 93.5999985
        tangentMode: 10
      m_PreInfinity: 2
      m_PostInfinity: 2
    attribute: localEulerAnglesBaked.z
    path: sprite/upper_left_leg
    classID: 4
    script: {fileID: 0}
  - curve:
      serializedVersion: 2
      m_Curve:
      - time: 0
        value: 0
        inSlope: 0
        outSlope: 0
        tangentMode: 10
      - time: .125
        value: 0
        inSlope: 0
        outSlope: 0
        tangentMode: 10
      - time: .25
        value: 0
        inSlope: 0
        outSlope: 0
        tangentMode: 10
      - time: .375
        value: 0
        inSlope: 0
        outSlope: 0
        tangentMode: 10
      - time: .5
        value: 0
        inSlope: 0
        outSlope: 0
        tangentMode: 10
      m_PreInfinity: 2
      m_PostInfinity: 2
    attribute: localEulerAnglesBaked.x
    path: sprite/upper_left_leg/lower_left_leg
    classID: 4
    script: {fileID: 0}
  - curve:
      serializedVersion: 2
      m_Curve:
      - time: 0
        value: 0
        inSlope: 0
        outSlope: 0
        tangentMode: 10
      - time: .125
        value: 0
        inSlope: 0
        outSlope: 0
        tangentMode: 10
      - time: .25
        value: 0
        inSlope: 0
        outSlope: 0
        tangentMode: 10
      - time: .375
        value: 0
        inSlope: 0
        outSlope: 0
        tangentMode: 10
      - time: .5
        value: 0
        inSlope: 0
        outSlope: 0
        tangentMode: 10
      m_PreInfinity: 2
      m_PostInfinity: 2
    attribute: localEulerAnglesBaked.y
    path: sprite/upper_left_leg/lower_left_leg
    classID: 4
    script: {fileID: 0}
  - curve:
      serializedVersion: 2
      m_Curve:
      - time: 0
        value: 81.5999985
        inSlope: 128
        outSlope: 128
        tangentMode: 10
      - time: .125
        value: 97.5999985
        inSlope: -271.600006
        outSlope: -271.600006
        tangentMode: 10
      - time: .25
        value: 13.6999998
        inSlope: -390.399994
        outSlope: -390.399994
        tangentMode: 10
      - time: .375
        value: 0
        inSlope: 271.600006
        outSlope: 271.600006
        tangentMode: 10
      - time: .5
        value: 81.5999985
        inSlope: 652.799988
        outSlope: 652.799988
        tangentMode: 10
      m_PreInfinity: 2
      m_PostInfinity: 2
    attribute: localEulerAnglesBaked.z
    path: sprite/upper_left_leg/lower_left_leg
    classID: 4
    script: {fileID: 0}
  - curve:
      serializedVersion: 2
      m_Curve:
      - time: 0
        value: 0
        inSlope: 0
        outSlope: 0
        tangentMode: 10
      - time: .125
        value: 0
        inSlope: 0
        outSlope: 0
        tangentMode: 10
      - time: .25
        value: 0
        inSlope: 0
        outSlope: 0
        tangentMode: 10
      - time: .375
        value: 0
        inSlope: 0
        outSlope: 0
        tangentMode: 10
      - time: .5
        value: 0
        inSlope: 0
        outSlope: 0
        tangentMode: 10
      m_PreInfinity: 2
      m_PostInfinity: 2
    attribute: localEulerAnglesBaked.x
    path: sprite/upper_right_leg
    classID: 4
    script: {fileID: 0}
  - curve:
      serializedVersion: 2
      m_Curve:
      - time: 0
        value: 0
        inSlope: 0
        outSlope: 0
        tangentMode: 10
      - time: .125
        value: 0
        inSlope: 0
        outSlope: 0
        tangentMode: 10
      - time: .25
        value: 0
        inSlope: 0
        outSlope: 0
        tangentMode: 10
      - time: .375
        value: 0
        inSlope: 0
        outSlope: 0
        tangentMode: 10
      - time: .5
        value: 0
        inSlope: 0
        outSlope: 0
        tangentMode: 10
      m_PreInfinity: 2
      m_PostInfinity: 2
    attribute: localEulerAnglesBaked.y
    path: sprite/upper_right_leg
    classID: 4
    script: {fileID: 0}
  - curve:
      serializedVersion: 2
      m_Curve:
      - time: 0
        value: 59.5999985
        inSlope: -476.799988
        outSlope: -476.799988
        tangentMode: 10
      - time: .125
        value: 0
        inSlope: -368.799988
        outSlope: -368.799988
        tangentMode: 10
      - time: .25
        value: -32.5999985
        inSlope: 50
        outSlope: 50
        tangentMode: 10
      - time: .375
        value: 12.5
        inSlope: 368.799988
        outSlope: 368.799988
        tangentMode: 10
      - time: .5
        value: 59.5999985
        inSlope: 376.799988
        outSlope: 376.799988
        tangentMode: 10
      m_PreInfinity: 2
      m_PostInfinity: 2
    attribute: localEulerAnglesBaked.z
    path: sprite/upper_right_leg
    classID: 4
    script: {fileID: 0}
  - curve:
      serializedVersion: 2
      m_Curve:
      - time: 0
        value: 0
        inSlope: 0
        outSlope: 0
        tangentMode: 10
      - time: .125
        value: 0
        inSlope: 0
        outSlope: 0
        tangentMode: 10
      - time: .25
        value: 0
        inSlope: 0
        outSlope: 0
        tangentMode: 10
      - time: .375
        value: 0
        inSlope: 0
        outSlope: 0
        tangentMode: 10
      - time: .5
        value: 0
        inSlope: 0
        outSlope: 0
        tangentMode: 10
      m_PreInfinity: 2
      m_PostInfinity: 2
    attribute: localEulerAnglesBaked.x
    path: sprite/upper_right_leg/lower_right_leg
    classID: 4
    script: {fileID: 0}
  - curve:
      serializedVersion: 2
      m_Curve:
      - time: 0
        value: 0
        inSlope: 0
        outSlope: 0
        tangentMode: 10
      - time: .125
        value: 0
        inSlope: 0
        outSlope: 0
        tangentMode: 10
      - time: .25
        value: 0
        inSlope: 0
        outSlope: 0
        tangentMode: 10
      - time: .375
        value: 0
        inSlope: 0
        outSlope: 0
        tangentMode: 10
      - time: .5
        value: 0
        inSlope: 0
        outSlope: 0
        tangentMode: 10
      m_PreInfinity: 2
      m_PostInfinity: 2
    attribute: localEulerAnglesBaked.y
    path: sprite/upper_right_leg/lower_right_leg
    classID: 4
    script: {fileID: 0}
  - curve:
      serializedVersion: 2
      m_Curve:
      - time: 0
        value: -45.25
        inSlope: 362
        outSlope: 362
        tangentMode: 10
      - time: .125
        value: 0
        inSlope: -34.2799988
        outSlope: -34.2799988
        tangentMode: 10
      - time: .25
        value: -53.8199997
        inSlope: -367.600006
        outSlope: -367.600006
        tangentMode: 10
      - time: .375
        value: -91.9000015
        inSlope: 34.2799988
        outSlope: 34.2799988
        tangentMode: 10
      - time: .5
        value: -45.25
        inSlope: 373.200012
        outSlope: 373.200012
        tangentMode: 10
      m_PreInfinity: 2
      m_PostInfinity: 2
    attribute: localEulerAnglesBaked.z
    path: sprite/upper_right_leg/lower_right_leg
    classID: 4
    script: {fileID: 0}
  m_Events: []
